org\ambientdynamix\contextplugins\BluetoothA2dpDevices.class
org\ambientdynamix\contextplugins\BluetoothA2dpDevices$1.class
org\ambientdynamix\contextplugins\IBluetoothA2dpState.class
org\ambientdynamix\contextplugins\IBluetoothA2dpDevices.class
